{
    "builders": [
      {
        "type": "yandex",
        "folder_id": "b1g4152c4kqrduv0rh7d",
        "zone": "ru-central1-a",
        "image_name": "centos-8-base",
        "image_family": "centos-base",
        "image_description": "CentOS8 base image",
        "source_image_family": "centos-8",
        "subnet_id": "e9b6rc2t9motmhph0bgq",
        "use_ipv4_nat": true,
        "disk_type": "network-ssd",
        "ssh_username": "cloud-user"
      }
    ]
}